…
### data summary

This dataset contains information on NYC subway entrances and exits,
including the location, line, latitude and longitude, ADA accessibility,
and other information. So far, names have been tidied, some variables
were dropped, and entry was recoded from yes/no to true/false. This
dataset has 1868 rows and 19 columns. The data are tidy.

### additional analyses

``` r
distinct(nyc_df, station_name)
```

    ## # A tibble: 356 x 1
    ##    station_name            
    ##    <chr>                   
    ##  1 25th St                 
    ##  2 36th St                 
    ##  3 45th St                 
    ##  4 53rd St                 
    ##  5 59th St                 
    ##  6 77th St                 
    ##  7 86th St                 
    ##  8 95th St                 
    ##  9 9th St                  
    ## 10 Atlantic Av-Barclays Ctr
    ## # ... with 346 more rows
…
